<?xml version="1.0" encoding="UTF-8" standalone="no"?>
<!-- Created with Inkscape (http://www.inkscape.org/) -->

<svg
   xmlns:dc="http://purl.org/dc/elements/1.1/"
   xmlns:cc="http://creativecommons.org/ns#"
   xmlns:rdf="http://www.w3.org/1999/02/22-rdf-syntax-ns#"
   xmlns:svg="http://www.w3.org/2000/svg"
   xmlns="http://www.w3.org/2000/svg"
   xmlns:sodipodi="http://sodipodi.sourceforge.net/DTD/sodipodi-0.dtd"
   xmlns:inkscape="http://www.inkscape.org/namespaces/inkscape"
   width="350.08636"
   height="236.43109"
   id="svg5858"
   version="1.1"
   inkscape:version="0.48.4 r9939"
   sodipodi:docname="reuse-small-data.svg">
  <defs
     id="defs5860">
    <marker
       inkscape:stockid="Arrow1Mend"
       orient="auto"
       refY="0"
       refX="0"
       id="Arrow1Mend"
       style="overflow:visible">
      <path
         id="path3784"
         d="M 0,0 5,-5 -12.5,0 5,5 0,0 z"
         style="fill-rule:evenodd;stroke:#000000;stroke-width:1pt"
         transform="matrix(-0.4,0,0,-0.4,-4,0)"
         inkscape:connector-curvature="0" />
    </marker>
    <marker
       inkscape:stockid="Arrow1Mend"
       orient="auto"
       refY="0"
       refX="0"
       id="marker6671"
       style="overflow:visible">
      <path
         id="path6673"
         d="M 0,0 5,-5 -12.5,0 5,5 0,0 z"
         style="fill-rule:evenodd;stroke:#000000;stroke-width:1pt"
         transform="matrix(-0.4,0,0,-0.4,-4,0)"
         inkscape:connector-curvature="0" />
    </marker>
    <marker
       inkscape:stockid="Arrow1Mend"
       orient="auto"
       refY="0"
       refX="0"
       id="marker6675"
       style="overflow:visible">
      <path
         id="path6677"
         d="M 0,0 5,-5 -12.5,0 5,5 0,0 z"
         style="fill-rule:evenodd;stroke:#000000;stroke-width:1pt"
         transform="matrix(-0.4,0,0,-0.4,-4,0)"
         inkscape:connector-curvature="0" />
    </marker>
    <marker
       style="overflow:visible"
       id="RedArrow1Mend"
       refX="0"
       refY="0"
       orient="auto"
       inkscape:stockid="RedArrow1Mend">
      <path
         transform="matrix(-0.4,0,0,-0.4,-4,0)"
         style="fill:#a40000;fill-rule:evenodd;stroke:#a40000;stroke-width:1pt"
         d="M 0,0 5,-5 -12.5,0 5,5 0,0 z"
         id="path4687"
         inkscape:connector-curvature="0" />
    </marker>
    <marker
       inkscape:stockid="Arrow1Mend"
       orient="auto"
       refY="0"
       refX="0"
       id="Arrow1Mend-9"
       style="overflow:visible">
      <path
         id="path3784-3"
         d="M 0,0 5,-5 -12.5,0 5,5 0,0 z"
         style="fill-rule:evenodd;stroke:#000000;stroke-width:1pt"
         transform="matrix(-0.4,0,0,-0.4,-4,0)"
         inkscape:connector-curvature="0" />
    </marker>
    <marker
       inkscape:stockid="Arrow1Mend"
       orient="auto"
       refY="0"
       refX="0"
       id="Arrow1Mend-7"
       style="overflow:visible">
      <path
         id="path3784-8"
         d="M 0,0 5,-5 -12.5,0 5,5 0,0 z"
         style="fill-rule:evenodd;stroke:#000000;stroke-width:1pt"
         transform="matrix(-0.4,0,0,-0.4,-4,0)"
         inkscape:connector-curvature="0" />
    </marker>
  </defs>
  <sodipodi:namedview
     id="base"
     pagecolor="#ffffff"
     bordercolor="#666666"
     borderopacity="1.0"
     inkscape:pageopacity="0.0"
     inkscape:pageshadow="2"
     inkscape:zoom="1"
     inkscape:cx="418.83304"
     inkscape:cy="225.71491"
     inkscape:document-units="px"
     inkscape:current-layer="layer1"
     showgrid="false"
     fit-margin-top="5"
     fit-margin-right="5"
     fit-margin-bottom="5"
     fit-margin-left="5"
     inkscape:window-width="1045"
     inkscape:window-height="905"
     inkscape:window-x="1985"
     inkscape:window-y="92"
     inkscape:window-maximized="0" />
  <metadata
     id="metadata5863">
    <rdf:RDF>
      <cc:Work
         rdf:about="">
        <dc:format>image/svg+xml</dc:format>
        <dc:type
           rdf:resource="http://purl.org/dc/dcmitype/StillImage" />
        <dc:title />
      </cc:Work>
    </rdf:RDF>
  </metadata>
  <g
     inkscape:label="レイヤー 1"
     inkscape:groupmode="layer"
     id="layer1"
     transform="translate(-344.1113,-655.7171)">
    <text
       xml:space="preserve"
       style="font-size:20px;font-style:normal;font-variant:normal;font-weight:normal;font-stretch:normal;line-height:125%;letter-spacing:0px;word-spacing:0px;fill:#000000;fill-opacity:1;stroke:none;font-family:Sans;-inkscape-font-specification:Sans"
       x="384.15619"
       y="677.45538"
       id="text3755"
       sodipodi:linespacing="125%"><tspan
         sodipodi:role="line"
         id="tspan3757"
         x="384.15619"
         y="677.45538">小さなサイズのデータの再利用</tspan></text>
    <rect
       inkscape:tile-y0="625.41418"
       inkscape:tile-x0="376.43085"
       inkscape:tile-h="36.292664"
       inkscape:tile-w="55.265339"
       inkscape:tile-cy="643.56052"
       inkscape:tile-cx="404.06352"
       ry="2.2097087"
       rx="2.2097087"
       y="710.85553"
       x="488.36734"
       height="75.292664"
       width="199.83032"
       id="rect6931"
       style="color:#000000;fill:#ffffff;fill-opacity:1;fill-rule:nonzero;stroke:#000000;stroke-width:2;stroke-linecap:butt;stroke-linejoin:round;stroke-miterlimit:4;stroke-opacity:1;stroke-dasharray:none;stroke-dashoffset:0;marker:none;visibility:visible;display:inline;overflow:visible;enable-background:accumulate" />
    <rect
       inkscape:tile-y0="625.41418"
       inkscape:tile-x0="376.43085"
       inkscape:tile-h="36.292664"
       inkscape:tile-w="55.265339"
       inkscape:tile-cy="643.56052"
       inkscape:tile-cx="404.06352"
       ry="2.2097087"
       rx="2.2097087"
       y="711.85553"
       x="489.36734"
       height="36.292664"
       width="99.26535"
       id="rect6933"
       style="color:#000000;fill:#ffffff;fill-opacity:1;fill-rule:nonzero;stroke:#000000;stroke-width:2;stroke-linecap:butt;stroke-linejoin:round;stroke-miterlimit:4;stroke-opacity:1;stroke-dasharray:none;stroke-dashoffset:0;marker:none;visibility:visible;display:inline;overflow:visible;enable-background:accumulate" />
    <text
       sodipodi:linespacing="125%"
       id="text6955"
       y="1259.4263"
       x="514.52448"
       style="font-size:20px;font-style:normal;font-variant:normal;font-weight:normal;font-stretch:normal;line-height:125%;letter-spacing:0px;word-spacing:0px;fill:#000000;fill-opacity:1;stroke:none;font-family:Sans;-inkscape-font-specification:Sans"
       xml:space="preserve"><tspan
         y="1259.4263"
         x="514.52448"
         id="tspan6957"
         sodipodi:role="line" /></text>
    <text
       xml:space="preserve"
       style="font-size:20px;font-style:normal;font-variant:normal;font-weight:normal;font-stretch:normal;line-height:125%;letter-spacing:0px;word-spacing:0px;fill:#000000;fill-opacity:1;stroke:none;font-family:Sans;-inkscape-font-specification:Sans"
       x="26.870058"
       y="623.78308"
       id="text6963"
       sodipodi:linespacing="125%"
       transform="translate(482.36734,698.79205)"><tspan
         sodipodi:role="line"
         id="tspan6965"
         x="26.870058"
         y="623.78308" /></text>
    <rect
       style="color:#000000;fill:#ffffff;fill-opacity:1;fill-rule:nonzero;stroke:#000000;stroke-width:2;stroke-linecap:butt;stroke-linejoin:round;stroke-miterlimit:4;stroke-opacity:1;stroke-dasharray:none;stroke-dashoffset:0;marker:none;visibility:visible;display:inline;overflow:visible;enable-background:accumulate"
       id="rect8120"
       width="19.380543"
       height="36.292664"
       x="488.75214"
       y="712.35553"
       rx="2.2097087"
       ry="2.2097087"
       inkscape:tile-cx="404.06352"
       inkscape:tile-cy="643.56052"
       inkscape:tile-w="55.265339"
       inkscape:tile-h="36.292664"
       inkscape:tile-x0="376.43085"
       inkscape:tile-y0="625.41418" />
    <text
       xml:space="preserve"
       style="font-size:20px;font-style:normal;font-variant:normal;font-weight:normal;font-stretch:normal;line-height:125%;letter-spacing:0px;word-spacing:0px;fill:#a40000;fill-opacity:1;stroke:none;font-family:Sans;-inkscape-font-specification:Sans"
       x="488.2374"
       y="736.46417"
       id="text6967"
       sodipodi:linespacing="125%"><tspan
         sodipodi:role="line"
         id="tspan6969"
         x="488.2374"
         y="736.46417">×</tspan></text>
    <text
       sodipodi:linespacing="125%"
       id="text7795"
       y="752.38434"
       x="348.31052"
       style="font-size:20px;font-style:normal;font-variant:normal;font-weight:normal;font-stretch:normal;line-height:125%;letter-spacing:0px;word-spacing:0px;fill:#000000;fill-opacity:1;stroke:none;font-family:Sans;-inkscape-font-specification:Sans"
       xml:space="preserve"><tspan
         y="752.38434"
         x="348.31052"
         id="tspan7797"
         sodipodi:role="line">再利用非対象</tspan></text>
    <text
       sodipodi:linespacing="125%"
       id="text7900"
       y="850.38428"
       x="348.31052"
       style="font-size:20px;font-style:normal;font-variant:normal;font-weight:normal;font-stretch:normal;line-height:125%;letter-spacing:0px;word-spacing:0px;fill:#000000;fill-opacity:1;stroke:none;font-family:Sans;-inkscape-font-specification:Sans"
       xml:space="preserve"><tspan
         y="850.38428"
         x="348.31052"
         id="tspan7902"
         sodipodi:role="line">再利用対象！</tspan></text>
    <rect
       inkscape:tile-y0="625.41418"
       inkscape:tile-x0="376.43085"
       inkscape:tile-h="36.292664"
       inkscape:tile-w="55.265339"
       inkscape:tile-cy="643.56052"
       inkscape:tile-cx="404.06352"
       ry="2.2097087"
       rx="2.2097087"
       y="712.35553"
       x="508.75214"
       height="36.292664"
       width="19.380543"
       id="rect8122"
       style="color:#000000;fill:#e9b96e;fill-opacity:1;fill-rule:nonzero;stroke:#000000;stroke-width:2;stroke-linecap:butt;stroke-linejoin:round;stroke-miterlimit:4;stroke-opacity:1;stroke-dasharray:none;stroke-dashoffset:0;marker:none;visibility:visible;display:inline;overflow:visible;enable-background:accumulate" />
    <rect
       style="color:#000000;fill:#ffffff;fill-opacity:1;fill-rule:nonzero;stroke:#000000;stroke-width:2;stroke-linecap:butt;stroke-linejoin:round;stroke-miterlimit:4;stroke-opacity:1;stroke-dasharray:none;stroke-dashoffset:0;marker:none;visibility:visible;display:inline;overflow:visible;enable-background:accumulate"
       id="rect8124"
       width="19.380543"
       height="36.292664"
       x="528.75214"
       y="712.35553"
       rx="2.2097087"
       ry="2.2097087"
       inkscape:tile-cx="404.06352"
       inkscape:tile-cy="643.56052"
       inkscape:tile-w="55.265339"
       inkscape:tile-h="36.292664"
       inkscape:tile-x0="376.43085"
       inkscape:tile-y0="625.41418" />
    <rect
       inkscape:tile-y0="625.41418"
       inkscape:tile-x0="376.43085"
       inkscape:tile-h="36.292664"
       inkscape:tile-w="55.265339"
       inkscape:tile-cy="643.56052"
       inkscape:tile-cx="404.06352"
       ry="2.2097087"
       rx="2.2097087"
       y="712.35553"
       x="548.75214"
       height="36.292664"
       width="19.380543"
       id="rect8126"
       style="color:#000000;fill:#e9b96e;fill-opacity:1;fill-rule:nonzero;stroke:#000000;stroke-width:2;stroke-linecap:butt;stroke-linejoin:round;stroke-miterlimit:4;stroke-opacity:1;stroke-dasharray:none;stroke-dashoffset:0;marker:none;visibility:visible;display:inline;overflow:visible;enable-background:accumulate" />
    <rect
       style="color:#000000;fill:#e9b96e;fill-opacity:1;fill-rule:nonzero;stroke:#000000;stroke-width:2;stroke-linecap:butt;stroke-linejoin:round;stroke-miterlimit:4;stroke-opacity:1;stroke-dasharray:none;stroke-dashoffset:0;marker:none;visibility:visible;display:inline;overflow:visible;enable-background:accumulate"
       id="rect8128"
       width="19.380543"
       height="36.292664"
       x="568.75214"
       y="712.35553"
       rx="2.2097087"
       ry="2.2097087"
       inkscape:tile-cx="404.06352"
       inkscape:tile-cy="643.56052"
       inkscape:tile-w="55.265339"
       inkscape:tile-h="36.292664"
       inkscape:tile-x0="376.43085"
       inkscape:tile-y0="625.41418" />
    <rect
       inkscape:tile-y0="625.41418"
       inkscape:tile-x0="376.43085"
       inkscape:tile-h="36.292664"
       inkscape:tile-w="55.265339"
       inkscape:tile-cy="643.56052"
       inkscape:tile-cx="404.06352"
       ry="2.2097087"
       rx="2.2097087"
       y="712.35553"
       x="588.75214"
       height="36.292664"
       width="19.380543"
       id="rect8130"
       style="color:#000000;fill:#e9b96e;fill-opacity:1;fill-rule:nonzero;stroke:#000000;stroke-width:2;stroke-linecap:butt;stroke-linejoin:round;stroke-miterlimit:4;stroke-opacity:1;stroke-dasharray:none;stroke-dashoffset:0;marker:none;visibility:visible;display:inline;overflow:visible;enable-background:accumulate" />
    <rect
       style="color:#000000;fill:#ffffff;fill-opacity:1;fill-rule:nonzero;stroke:#000000;stroke-width:2;stroke-linecap:butt;stroke-linejoin:round;stroke-miterlimit:4;stroke-opacity:1;stroke-dasharray:none;stroke-dashoffset:0;marker:none;visibility:visible;display:inline;overflow:visible;enable-background:accumulate"
       id="rect8165"
       width="19.380543"
       height="36.292664"
       x="608.75214"
       y="712.35553"
       rx="2.2097087"
       ry="2.2097087"
       inkscape:tile-cx="404.06352"
       inkscape:tile-cy="643.56052"
       inkscape:tile-w="55.265339"
       inkscape:tile-h="36.292664"
       inkscape:tile-x0="376.43085"
       inkscape:tile-y0="625.41418" />
    <rect
       inkscape:tile-y0="625.41418"
       inkscape:tile-x0="376.43085"
       inkscape:tile-h="36.292664"
       inkscape:tile-w="55.265339"
       inkscape:tile-cy="643.56052"
       inkscape:tile-cx="404.06352"
       ry="2.2097087"
       rx="2.2097087"
       y="712.35553"
       x="628.75214"
       height="36.292664"
       width="19.380543"
       id="rect8167"
       style="color:#000000;fill:#e9b96e;fill-opacity:1;fill-rule:nonzero;stroke:#000000;stroke-width:2;stroke-linecap:butt;stroke-linejoin:round;stroke-miterlimit:4;stroke-opacity:1;stroke-dasharray:none;stroke-dashoffset:0;marker:none;visibility:visible;display:inline;overflow:visible;enable-background:accumulate" />
    <rect
       style="color:#000000;fill:#e9b96e;fill-opacity:1;fill-rule:nonzero;stroke:#000000;stroke-width:2;stroke-linecap:butt;stroke-linejoin:round;stroke-miterlimit:4;stroke-opacity:1;stroke-dasharray:none;stroke-dashoffset:0;marker:none;visibility:visible;display:inline;overflow:visible;enable-background:accumulate"
       id="rect8169"
       width="19.380543"
       height="36.292664"
       x="648.75214"
       y="712.35553"
       rx="2.2097087"
       ry="2.2097087"
       inkscape:tile-cx="404.06352"
       inkscape:tile-cy="643.56052"
       inkscape:tile-w="55.265339"
       inkscape:tile-h="36.292664"
       inkscape:tile-x0="376.43085"
       inkscape:tile-y0="625.41418" />
    <rect
       inkscape:tile-y0="625.41418"
       inkscape:tile-x0="376.43085"
       inkscape:tile-h="36.292664"
       inkscape:tile-w="55.265339"
       inkscape:tile-cy="643.56052"
       inkscape:tile-cx="404.06352"
       ry="2.2097087"
       rx="2.2097087"
       y="712.35553"
       x="668.75214"
       height="36.292664"
       width="19.380543"
       id="rect8171"
       style="color:#000000;fill:#e9b96e;fill-opacity:1;fill-rule:nonzero;stroke:#000000;stroke-width:2;stroke-linecap:butt;stroke-linejoin:round;stroke-miterlimit:4;stroke-opacity:1;stroke-dasharray:none;stroke-dashoffset:0;marker:none;visibility:visible;display:inline;overflow:visible;enable-background:accumulate" />
    <rect
       inkscape:tile-y0="625.41418"
       inkscape:tile-x0="376.43085"
       inkscape:tile-h="36.292664"
       inkscape:tile-w="55.265339"
       inkscape:tile-cy="643.56052"
       inkscape:tile-cx="404.06352"
       ry="2.2097087"
       rx="2.2097087"
       y="748.35553"
       x="488.75214"
       height="36.292664"
       width="19.380543"
       id="rect8173"
       style="color:#000000;fill:#e9b96e;fill-opacity:1;fill-rule:nonzero;stroke:#000000;stroke-width:2;stroke-linecap:butt;stroke-linejoin:round;stroke-miterlimit:4;stroke-opacity:1;stroke-dasharray:none;stroke-dashoffset:0;marker:none;visibility:visible;display:inline;overflow:visible;enable-background:accumulate" />
    <rect
       style="color:#000000;fill:#e9b96e;fill-opacity:1;fill-rule:nonzero;stroke:#000000;stroke-width:2;stroke-linecap:butt;stroke-linejoin:round;stroke-miterlimit:4;stroke-opacity:1;stroke-dasharray:none;stroke-dashoffset:0;marker:none;visibility:visible;display:inline;overflow:visible;enable-background:accumulate"
       id="rect8175"
       width="19.380543"
       height="36.292664"
       x="508.75214"
       y="748.35553"
       rx="2.2097087"
       ry="2.2097087"
       inkscape:tile-cx="404.06352"
       inkscape:tile-cy="643.56052"
       inkscape:tile-w="55.265339"
       inkscape:tile-h="36.292664"
       inkscape:tile-x0="376.43085"
       inkscape:tile-y0="625.41418" />
    <rect
       inkscape:tile-y0="625.41418"
       inkscape:tile-x0="376.43085"
       inkscape:tile-h="36.292664"
       inkscape:tile-w="55.265339"
       inkscape:tile-cy="643.56052"
       inkscape:tile-cx="404.06352"
       ry="2.2097087"
       rx="2.2097087"
       y="748.35553"
       x="528.75214"
       height="36.292664"
       width="19.380543"
       id="rect8177"
       style="color:#000000;fill:#e9b96e;fill-opacity:1;fill-rule:nonzero;stroke:#000000;stroke-width:2;stroke-linecap:butt;stroke-linejoin:round;stroke-miterlimit:4;stroke-opacity:1;stroke-dasharray:none;stroke-dashoffset:0;marker:none;visibility:visible;display:inline;overflow:visible;enable-background:accumulate" />
    <text
       sodipodi:linespacing="125%"
       id="text8860"
       y="736.46417"
       x="528.23743"
       style="font-size:20px;font-style:normal;font-variant:normal;font-weight:normal;font-stretch:normal;line-height:125%;letter-spacing:0px;word-spacing:0px;fill:#a40000;fill-opacity:1;stroke:none;font-family:Sans;-inkscape-font-specification:Sans"
       xml:space="preserve"><tspan
         y="736.46417"
         x="528.23743"
         id="tspan8862"
         sodipodi:role="line">×</tspan></text>
    <text
       xml:space="preserve"
       style="font-size:20px;font-style:normal;font-variant:normal;font-weight:normal;font-stretch:normal;line-height:125%;letter-spacing:0px;word-spacing:0px;fill:#a40000;fill-opacity:1;stroke:none;font-family:Sans;-inkscape-font-specification:Sans"
       x="608.23743"
       y="736.46417"
       id="text8864"
       sodipodi:linespacing="125%"><tspan
         sodipodi:role="line"
         id="tspan8866"
         x="608.23743"
         y="736.46417">×</tspan></text>
    <rect
       style="color:#000000;fill:#ffffff;fill-opacity:1;fill-rule:nonzero;stroke:#000000;stroke-width:2;stroke-linecap:butt;stroke-linejoin:round;stroke-miterlimit:4;stroke-opacity:1;stroke-dasharray:none;stroke-dashoffset:0;marker:none;visibility:visible;display:inline;overflow:visible;enable-background:accumulate"
       id="rect8902"
       width="199.83032"
       height="75.292664"
       x="488.36734"
       y="810.85553"
       rx="2.2097087"
       ry="2.2097087"
       inkscape:tile-cx="404.06352"
       inkscape:tile-cy="643.56052"
       inkscape:tile-w="55.265339"
       inkscape:tile-h="36.292664"
       inkscape:tile-x0="376.43085"
       inkscape:tile-y0="625.41418" />
    <rect
       style="color:#000000;fill:#ffffff;fill-opacity:1;fill-rule:nonzero;stroke:#000000;stroke-width:2;stroke-linecap:butt;stroke-linejoin:round;stroke-miterlimit:4;stroke-opacity:1;stroke-dasharray:none;stroke-dashoffset:0;marker:none;visibility:visible;display:inline;overflow:visible;enable-background:accumulate"
       id="rect8904"
       width="99.26535"
       height="36.292664"
       x="489.36734"
       y="811.85553"
       rx="2.2097087"
       ry="2.2097087"
       inkscape:tile-cx="404.06352"
       inkscape:tile-cy="643.56052"
       inkscape:tile-w="55.265339"
       inkscape:tile-h="36.292664"
       inkscape:tile-x0="376.43085"
       inkscape:tile-y0="625.41418" />
    <rect
       inkscape:tile-y0="625.41418"
       inkscape:tile-x0="376.43085"
       inkscape:tile-h="36.292664"
       inkscape:tile-w="55.265339"
       inkscape:tile-cy="643.56052"
       inkscape:tile-cx="404.06352"
       ry="2.2097087"
       rx="2.2097087"
       y="812.35553"
       x="488.75214"
       height="36.292664"
       width="19.380543"
       id="rect8906"
       style="color:#000000;fill:#ffffff;fill-opacity:1;fill-rule:nonzero;stroke:#000000;stroke-width:2;stroke-linecap:butt;stroke-linejoin:round;stroke-miterlimit:4;stroke-opacity:1;stroke-dasharray:none;stroke-dashoffset:0;marker:none;visibility:visible;display:inline;overflow:visible;enable-background:accumulate" />
    <text
       sodipodi:linespacing="125%"
       id="text8908"
       y="836.46417"
       x="488.2374"
       style="font-size:20px;font-style:normal;font-variant:normal;font-weight:normal;font-stretch:normal;line-height:125%;letter-spacing:0px;word-spacing:0px;fill:#a40000;fill-opacity:1;stroke:none;font-family:Sans;-inkscape-font-specification:Sans"
       xml:space="preserve"><tspan
         y="836.46417"
         x="488.2374"
         id="tspan8910"
         sodipodi:role="line">×</tspan></text>
    <rect
       style="color:#000000;fill:#e9b96e;fill-opacity:1;fill-rule:nonzero;stroke:#000000;stroke-width:2;stroke-linecap:butt;stroke-linejoin:round;stroke-miterlimit:4;stroke-opacity:1;stroke-dasharray:none;stroke-dashoffset:0;marker:none;visibility:visible;display:inline;overflow:visible;enable-background:accumulate"
       id="rect8912"
       width="19.380543"
       height="36.292664"
       x="508.75214"
       y="812.35553"
       rx="2.2097087"
       ry="2.2097087"
       inkscape:tile-cx="404.06352"
       inkscape:tile-cy="643.56052"
       inkscape:tile-w="55.265339"
       inkscape:tile-h="36.292664"
       inkscape:tile-x0="376.43085"
       inkscape:tile-y0="625.41418" />
    <rect
       inkscape:tile-y0="625.41418"
       inkscape:tile-x0="376.43085"
       inkscape:tile-h="36.292664"
       inkscape:tile-w="55.265339"
       inkscape:tile-cy="643.56052"
       inkscape:tile-cx="404.06352"
       ry="2.2097087"
       rx="2.2097087"
       y="812.35553"
       x="528.75214"
       height="36.292664"
       width="19.380543"
       id="rect8914"
       style="color:#000000;fill:#ffffff;fill-opacity:1;fill-rule:nonzero;stroke:#000000;stroke-width:2;stroke-linecap:butt;stroke-linejoin:round;stroke-miterlimit:4;stroke-opacity:1;stroke-dasharray:none;stroke-dashoffset:0;marker:none;visibility:visible;display:inline;overflow:visible;enable-background:accumulate" />
    <rect
       style="color:#000000;fill:#ffffff;fill-opacity:1;fill-rule:nonzero;stroke:#000000;stroke-width:2;stroke-linecap:butt;stroke-linejoin:round;stroke-miterlimit:4;stroke-opacity:1;stroke-dasharray:none;stroke-dashoffset:0;marker:none;visibility:visible;display:inline;overflow:visible;enable-background:accumulate"
       id="rect8916"
       width="19.380543"
       height="36.292664"
       x="548.75214"
       y="812.35553"
       rx="2.2097087"
       ry="2.2097087"
       inkscape:tile-cx="404.06352"
       inkscape:tile-cy="643.56052"
       inkscape:tile-w="55.265339"
       inkscape:tile-h="36.292664"
       inkscape:tile-x0="376.43085"
       inkscape:tile-y0="625.41418" />
    <rect
       inkscape:tile-y0="625.41418"
       inkscape:tile-x0="376.43085"
       inkscape:tile-h="36.292664"
       inkscape:tile-w="55.265339"
       inkscape:tile-cy="643.56052"
       inkscape:tile-cx="404.06352"
       ry="2.2097087"
       rx="2.2097087"
       y="812.35553"
       x="568.75214"
       height="36.292664"
       width="19.380543"
       id="rect8918"
       style="color:#000000;fill:#ffffff;fill-opacity:0.94117647;fill-rule:nonzero;stroke:#000000;stroke-width:2;stroke-linecap:butt;stroke-linejoin:round;stroke-miterlimit:4;stroke-opacity:1;stroke-dasharray:none;stroke-dashoffset:0;marker:none;visibility:visible;display:inline;overflow:visible;enable-background:accumulate" />
    <rect
       style="color:#000000;fill:#e9b96e;fill-opacity:1;fill-rule:nonzero;stroke:#000000;stroke-width:2;stroke-linecap:butt;stroke-linejoin:round;stroke-miterlimit:4;stroke-opacity:1;stroke-dasharray:none;stroke-dashoffset:0;marker:none;visibility:visible;display:inline;overflow:visible;enable-background:accumulate"
       id="rect8920"
       width="19.380543"
       height="36.292664"
       x="588.75214"
       y="812.35553"
       rx="2.2097087"
       ry="2.2097087"
       inkscape:tile-cx="404.06352"
       inkscape:tile-cy="643.56052"
       inkscape:tile-w="55.265339"
       inkscape:tile-h="36.292664"
       inkscape:tile-x0="376.43085"
       inkscape:tile-y0="625.41418" />
    <rect
       inkscape:tile-y0="625.41418"
       inkscape:tile-x0="376.43085"
       inkscape:tile-h="36.292664"
       inkscape:tile-w="55.265339"
       inkscape:tile-cy="643.56052"
       inkscape:tile-cx="404.06352"
       ry="2.2097087"
       rx="2.2097087"
       y="812.35553"
       x="608.75214"
       height="36.292664"
       width="19.380543"
       id="rect8922"
       style="color:#000000;fill:#ffffff;fill-opacity:1;fill-rule:nonzero;stroke:#000000;stroke-width:2;stroke-linecap:butt;stroke-linejoin:round;stroke-miterlimit:4;stroke-opacity:1;stroke-dasharray:none;stroke-dashoffset:0;marker:none;visibility:visible;display:inline;overflow:visible;enable-background:accumulate" />
    <rect
       style="color:#000000;fill:#ffffff;fill-opacity:1;fill-rule:nonzero;stroke:#000000;stroke-width:2;stroke-linecap:butt;stroke-linejoin:round;stroke-miterlimit:4;stroke-opacity:1;stroke-dasharray:none;stroke-dashoffset:0;marker:none;visibility:visible;display:inline;overflow:visible;enable-background:accumulate"
       id="rect8924"
       width="19.380543"
       height="36.292664"
       x="628.75214"
       y="812.35553"
       rx="2.2097087"
       ry="2.2097087"
       inkscape:tile-cx="404.06352"
       inkscape:tile-cy="643.56052"
       inkscape:tile-w="55.265339"
       inkscape:tile-h="36.292664"
       inkscape:tile-x0="376.43085"
       inkscape:tile-y0="625.41418" />
    <rect
       inkscape:tile-y0="625.41418"
       inkscape:tile-x0="376.43085"
       inkscape:tile-h="36.292664"
       inkscape:tile-w="55.265339"
       inkscape:tile-cy="643.56052"
       inkscape:tile-cx="404.06352"
       ry="2.2097087"
       rx="2.2097087"
       y="812.35553"
       x="648.75214"
       height="36.292664"
       width="19.380543"
       id="rect8926"
       style="color:#000000;fill:#ffffff;fill-opacity:1;fill-rule:nonzero;stroke:#000000;stroke-width:2;stroke-linecap:butt;stroke-linejoin:round;stroke-miterlimit:4;stroke-opacity:1;stroke-dasharray:none;stroke-dashoffset:0;marker:none;visibility:visible;display:inline;overflow:visible;enable-background:accumulate" />
    <rect
       style="color:#000000;fill:#ffffff;fill-opacity:1;fill-rule:nonzero;stroke:#000000;stroke-width:2;stroke-linecap:butt;stroke-linejoin:round;stroke-miterlimit:4;stroke-opacity:1;stroke-dasharray:none;stroke-dashoffset:0;marker:none;visibility:visible;display:inline;overflow:visible;enable-background:accumulate"
       id="rect8928"
       width="19.380543"
       height="36.292664"
       x="668.75214"
       y="812.35553"
       rx="2.2097087"
       ry="2.2097087"
       inkscape:tile-cx="404.06352"
       inkscape:tile-cy="643.56052"
       inkscape:tile-w="55.265339"
       inkscape:tile-h="36.292664"
       inkscape:tile-x0="376.43085"
       inkscape:tile-y0="625.41418" />
    <rect
       style="color:#000000;fill:#ffffff;fill-opacity:1;fill-rule:nonzero;stroke:#000000;stroke-width:2;stroke-linecap:butt;stroke-linejoin:round;stroke-miterlimit:4;stroke-opacity:1;stroke-dasharray:none;stroke-dashoffset:0;marker:none;visibility:visible;display:inline;overflow:visible;enable-background:accumulate"
       id="rect8930"
       width="19.380543"
       height="36.292664"
       x="488.75214"
       y="848.35553"
       rx="2.2097087"
       ry="2.2097087"
       inkscape:tile-cx="404.06352"
       inkscape:tile-cy="643.56052"
       inkscape:tile-w="55.265339"
       inkscape:tile-h="36.292664"
       inkscape:tile-x0="376.43085"
       inkscape:tile-y0="625.41418" />
    <rect
       inkscape:tile-y0="625.41418"
       inkscape:tile-x0="376.43085"
       inkscape:tile-h="36.292664"
       inkscape:tile-w="55.265339"
       inkscape:tile-cy="643.56052"
       inkscape:tile-cx="404.06352"
       ry="2.2097087"
       rx="2.2097087"
       y="848.35553"
       x="508.75214"
       height="36.292664"
       width="19.380543"
       id="rect8932"
       style="color:#000000;fill:#ffffff;fill-opacity:1;fill-rule:nonzero;stroke:#000000;stroke-width:2;stroke-linecap:butt;stroke-linejoin:round;stroke-miterlimit:4;stroke-opacity:1;stroke-dasharray:none;stroke-dashoffset:0;marker:none;visibility:visible;display:inline;overflow:visible;enable-background:accumulate" />
    <rect
       style="color:#000000;fill:#e9b96e;fill-opacity:1;fill-rule:nonzero;stroke:#000000;stroke-width:2;stroke-linecap:butt;stroke-linejoin:round;stroke-miterlimit:4;stroke-opacity:1;stroke-dasharray:none;stroke-dashoffset:0;marker:none;visibility:visible;display:inline;overflow:visible;enable-background:accumulate"
       id="rect8934"
       width="19.380543"
       height="36.292664"
       x="528.75214"
       y="848.35553"
       rx="2.2097087"
       ry="2.2097087"
       inkscape:tile-cx="404.06352"
       inkscape:tile-cy="643.56052"
       inkscape:tile-w="55.265339"
       inkscape:tile-h="36.292664"
       inkscape:tile-x0="376.43085"
       inkscape:tile-y0="625.41418" />
    <text
       xml:space="preserve"
       style="font-size:20px;font-style:normal;font-variant:normal;font-weight:normal;font-stretch:normal;line-height:125%;letter-spacing:0px;word-spacing:0px;fill:#a40000;fill-opacity:1;stroke:none;font-family:Sans;-inkscape-font-specification:Sans"
       x="528.23743"
       y="836.46417"
       id="text8936"
       sodipodi:linespacing="125%"><tspan
         sodipodi:role="line"
         id="tspan8938"
         x="528.23743"
         y="836.46417">×</tspan></text>
    <text
       sodipodi:linespacing="125%"
       id="text8940"
       y="836.46417"
       x="608.23743"
       style="font-size:20px;font-style:normal;font-variant:normal;font-weight:normal;font-stretch:normal;line-height:125%;letter-spacing:0px;word-spacing:0px;fill:#a40000;fill-opacity:1;stroke:none;font-family:Sans;-inkscape-font-specification:Sans"
       xml:space="preserve"><tspan
         y="836.46417"
         x="608.23743"
         id="tspan8942"
         sodipodi:role="line">×</tspan></text>
    <text
       xml:space="preserve"
       style="font-size:20px;font-style:normal;font-variant:normal;font-weight:normal;font-stretch:normal;line-height:125%;letter-spacing:0px;word-spacing:0px;fill:#a40000;fill-opacity:1;stroke:none;font-family:Sans;-inkscape-font-specification:Sans"
       x="628.23743"
       y="836.46417"
       id="text8944"
       sodipodi:linespacing="125%"><tspan
         sodipodi:role="line"
         id="tspan8946"
         x="628.23743"
         y="836.46417">×</tspan></text>
    <text
       sodipodi:linespacing="125%"
       id="text8948"
       y="836.46417"
       x="648.23743"
       style="font-size:20px;font-style:normal;font-variant:normal;font-weight:normal;font-stretch:normal;line-height:125%;letter-spacing:0px;word-spacing:0px;fill:#a40000;fill-opacity:1;stroke:none;font-family:Sans;-inkscape-font-specification:Sans"
       xml:space="preserve"><tspan
         y="836.46417"
         x="648.23743"
         id="tspan8950"
         sodipodi:role="line">×</tspan></text>
    <text
       xml:space="preserve"
       style="font-size:20px;font-style:normal;font-variant:normal;font-weight:normal;font-stretch:normal;line-height:125%;letter-spacing:0px;word-spacing:0px;fill:#a40000;fill-opacity:1;stroke:none;font-family:Sans;-inkscape-font-specification:Sans"
       x="668.23743"
       y="836.46417"
       id="text8952"
       sodipodi:linespacing="125%"><tspan
         sodipodi:role="line"
         id="tspan8954"
         x="668.23743"
         y="836.46417">×</tspan></text>
    <text
       sodipodi:linespacing="125%"
       id="text8956"
       y="836.46417"
       x="568.23743"
       style="font-size:20px;font-style:normal;font-variant:normal;font-weight:normal;font-stretch:normal;line-height:125%;letter-spacing:0px;word-spacing:0px;fill:#a40000;fill-opacity:1;stroke:none;font-family:Sans;-inkscape-font-specification:Sans"
       xml:space="preserve"><tspan
         y="836.46417"
         x="568.23743"
         id="tspan8958"
         sodipodi:role="line">×</tspan></text>
    <text
       xml:space="preserve"
       style="font-size:20px;font-style:normal;font-variant:normal;font-weight:normal;font-stretch:normal;line-height:125%;letter-spacing:0px;word-spacing:0px;fill:#a40000;fill-opacity:1;stroke:none;font-family:Sans;-inkscape-font-specification:Sans"
       x="548.23743"
       y="836.46417"
       id="text8960"
       sodipodi:linespacing="125%"><tspan
         sodipodi:role="line"
         id="tspan8962"
         x="548.23743"
         y="836.46417">×</tspan></text>
    <text
       xml:space="preserve"
       style="font-size:20px;font-style:normal;font-variant:normal;font-weight:normal;font-stretch:normal;line-height:125%;letter-spacing:0px;word-spacing:0px;fill:#a40000;fill-opacity:1;stroke:none;font-family:Sans;-inkscape-font-specification:Sans"
       x="488.2374"
       y="872.46417"
       id="text8964"
       sodipodi:linespacing="125%"><tspan
         sodipodi:role="line"
         id="tspan8966"
         x="488.2374"
         y="872.46417">×</tspan></text>
    <text
       sodipodi:linespacing="125%"
       id="text8968"
       y="872.46417"
       x="508.2374"
       style="font-size:20px;font-style:normal;font-variant:normal;font-weight:normal;font-stretch:normal;line-height:125%;letter-spacing:0px;word-spacing:0px;fill:#a40000;fill-opacity:1;stroke:none;font-family:Sans;-inkscape-font-specification:Sans"
       xml:space="preserve"><tspan
         y="872.46417"
         x="508.2374"
         id="tspan8970"
         sodipodi:role="line">×</tspan></text>
  </g>
</svg>
